[gd_scene format=3 uid="uid://di6f38r58u4s2"]

[node name="Slot" type="Label"]
anchors_preset = 15
anchor_right = 1.0
anchor_bottom = 1.0
grow_horizontal = 2
grow_vertical = 2
size_flags_horizontal = 3
vertical_alignment = 1
