[gd_scene format=3 uid="uid://qm7sn844a605"]

[node name="Vector3Slot" type="HBoxContainer"]
offset_right = 278.0
offset_bottom = 31.0
size_flags_horizontal = 0
theme_override_constants/separation = 0
alignment = 1

[node name="Name" type="Label" parent="."]
layout_mode = 2
text = "Name"

[node name="Values" type="HBoxContainer" parent="."]
layout_mode = 2
size_flags_horizontal = 3
theme_override_constants/separation = 0
alignment = 1

[node name="XName" type="Label" parent="Values"]
layout_mode = 2
text = "X"

[node name="XValue" type="LineEdit" parent="Values"]
layout_mode = 2
size_flags_horizontal = 3
alignment = 1
caret_blink = true
caret_blink_interval = 0.5

[node name="YName" type="Label" parent="Values"]
layout_mode = 2
text = "Y"

[node name="YValue" type="LineEdit" parent="Values"]
layout_mode = 2
size_flags_horizontal = 3
alignment = 1
caret_blink = true
caret_blink_interval = 0.5

[node name="ZName" type="Label" parent="Values"]
layout_mode = 2
text = "Z"

[node name="ZValue" type="LineEdit" parent="Values"]
layout_mode = 2
size_flags_horizontal = 3
alignment = 1
caret_blink = true
caret_blink_interval = 0.5
